…
``` r
# inspecting rooms vs bedroom2 as Bedroom2 was scraped from a different source

melHouse %>%
  select(Rooms, Bedroom2)
```

    ## # A tibble: 34,857 x 2
    ##    Rooms Bedroom2
    ##    <int>    <int>
    ##  1     2        2
    ##  2     2        2
    ##  3     2        2
    ##  4     3        3
    ##  5     3        3
    ##  6     3        3
    ##  7     4        3
    ##  8     4        3
    ##  9     2        4
    ## 10     2        3
    ## # ... with 34,847 more rows

``` r
# inspecting the rows that are not equal to each other
melHouse %>%
  select(Rooms, Bedroom2) %>%
  filter(Rooms != Bedroom2)
```

    ## # A tibble: 948 x 2
    ##    Rooms Bedroom2
    ##    <int>    <int>
    ##  1     4        3
    ##  2     4        3
    ##  3     2        4
    ##  4     2        3
    ##  5     3        4
    ##  6     4        6
    ##  7     2        3
    ##  8     3        2
    ##  9     3        2
    ## 10     3        2
    ## # ... with 938 more rows
…
``` r
# Drop Bedroom2 due to multicolinearity issues
```

``` r
(melExtended <- select(melHouse, - SellerG, - Lat, - Long, 
                           - Method, - Suburb, -Postcode, -Address, 
                           - PropertyCount, - CouncilArea, - Bedroom2, - Date))
```

    ## # A tibble: 34,857 x 12
    ##    Rooms Type    Price Distance Bathroom   Car Landsize BuildingArea
    ##    <int> <fct>   <int>    <dbl>    <int> <int>    <int>        <dbl>
    ##  1     2 h          NA     2.50        1     1      126         NA  
    ##  2     2 h     1480000     2.50        1     1      202         NA  
    ##  3     2 h     1035000     2.50        1     0      156         79.0
    ##  4     3 u          NA     2.50        2     1        0         NA  
    ##  5     3 h     1465000     2.50        2     0      134        150  
    ##  6     3 h      850000     2.50        2     1       94         NA  
    ##  7     4 h     1600000     2.50        1     2      120        142  
    ##  8     4 h          NA     2.50        2     2      400        220  
    ##  9     2 h          NA     2.50        1     2      201         NA  
    ## 10     2 h          NA     2.50        2     1      202         NA  
    ## # ... with 34,847 more rows, and 4 more variables: YearBuilt <int>,
    ## #   Region <fct>, Month <fct>, Year <fct>
…
``` r
# inspecting rooms vs bedroom2 as Bedroom2 was scraped from a different source

melHouse %>%
  select(Rooms, Bedroom2)
```

    ## # A tibble: 34,857 x 2
    ##    Rooms Bedroom2
    ##    <int>    <int>
    ##  1     2        2
    ##  2     2        2
    ##  3     2        2
    ##  4     3        3
    ##  5     3        3
    ##  6     3        3
    ##  7     4        3
    ##  8     4        3
    ##  9     2        4
    ## 10     2        3
    ## # ... with 34,847 more rows

``` r
# inspecting the rows that are not equal to each other
melHouse %>%
  select(Rooms, Bedroom2) %>%
  filter(Rooms != Bedroom2)
```

    ## # A tibble: 948 x 2
    ##    Rooms Bedroom2
    ##    <int>    <int>
    ##  1     4        3
    ##  2     4        3
    ##  3     2        4
    ##  4     2        3
    ##  5     3        4
    ##  6     4        6
    ##  7     2        3
    ##  8     3        2
    ##  9     3        2
    ## 10     3        2
    ## # ... with 938 more rows
…
``` r
# Drop Bedroom2 due to multicolinearity issues
```

``` r
(melExtended <- select(melHouse, - SellerG, - Lat, - Long, 
                           - Method, - Suburb, -Postcode, -Address, 
                           - PropertyCount, - CouncilArea, - Bedroom2, - Date))
```

    ## # A tibble: 34,857 x 12
    ##    Rooms Type    Price Distance Bathroom   Car Landsize BuildingArea
    ##    <int> <fct>   <int>    <dbl>    <int> <int>    <int>        <dbl>
    ##  1     2 h          NA     2.50        1     1      126         NA  
    ##  2     2 h     1480000     2.50        1     1      202         NA  
    ##  3     2 h     1035000     2.50        1     0      156         79.0
    ##  4     3 u          NA     2.50        2     1        0         NA  
    ##  5     3 h     1465000     2.50        2     0      134        150  
    ##  6     3 h      850000     2.50        2     1       94         NA  
    ##  7     4 h     1600000     2.50        1     2      120        142  
    ##  8     4 h          NA     2.50        2     2      400        220  
    ##  9     2 h          NA     2.50        1     2      201         NA  
    ## 10     2 h          NA     2.50        2     1      202         NA  
    ## # ... with 34,847 more rows, and 4 more variables: YearBuilt <int>,
    ## #   Region <fct>, Month <fct>, Year <fct>
…
